…
</section>
<section>

### Solution 4b

For each species in surveys_1990_winter_gb, create a new colum giving the rank order of hindfoot length.


~~~r
mutate(surveys_1990_winter_gb, ranked_hf_length = row_number(hindfoot_length))
~~~
{:.input}

~~~
Source: local data frame [491 x 9]
Groups: species_id [20]

   record_id month   day plot_id species_id    sex hindfoot_length weight
       <int> <int> <int>   <int>     <fctr> <fctr>           <int>  <int>
1      16879     1     6       1         DM      F              37     35
2      16880     1     6       1         OL      M              21     28
3      16881     1     6       6         PF      M              16      7
4      16882     1     6      23         RM      F              17      9
5      16883     1     6      12         RM      M              17     10
6      16884     1     6      24         RM      M              17      9
7      16885     1     6      12         SF      M              25     35
8      16886     1     6      24         SH      F              30     73
9      16887     1     6      12         SF      M              28     44
10     16888     1     6      17         DO      M              36     55
# ... with 481 more rows, and 1 more variables: ranked_hf_length <int>
…
