Manipulating Tabular Data
…
Return

Solution 4

group_by(animals, species_id, month) %>%
  summarize(count = n()) %>%
  spread(key = month, value = count, fill = 0)

# A tibble: 49 x 13
# Groups:   species_id [49]
   species_id   `1`   `2`   `3`   `4`   `5`   `6`   `7`   `8`   `9`  `10`
 *     <fctr> <dbl> <dbl> <dbl> <dbl> <dbl> <dbl> <dbl> <dbl> <dbl> <dbl>
 1         AB    75    52    38    18    12     5    12    11    12     9
 2         AH    27    38    24    29    58    54    33    29    44    38
 3         AS     1     0     0     0     0     0     0     1     0     0
 4         BA     5     4     3     4     3     3     2     2     1     4
 5         CB     1     1     0     1     2     5     8     6    16     5
 6         CM     0     0     0     0     0     0     0     3     9     1
 7         CQ     3     0     0     0     0     1     5     6     0     1
 8         CS     0     0     0     1     0     0     0     0     0     0
 9         CT     0     0     0     0     0     0     0     0     0     0
10         CU     0     0     0     0     0     0     0     0     0     0
# ... with 39 more rows, and 2 more variables: `11` <dbl>, `12` <dbl>
…
